<svg width="39" height="12" viewBox="0 0 39 12" fill="none" xmlns="http://www.w3.org/2000/svg">
<path fill-rule="evenodd" clip-rule="evenodd" d="M13.4054 11.5097L15.3688 0.203125H18.4155L16.5197 11.5097H13.4054Z" fill="#B5B5B5"/>
<path fill-rule="evenodd" clip-rule="evenodd" d="M27.7586 0.473927C27.1493 0.270815 26.2014 0 24.9827 0C21.9361 0 19.7695 1.55719 19.7695 3.72371C19.7695 5.34861 21.3267 6.22876 22.4777 6.83809C23.6964 7.37972 24.1026 7.71824 24.1026 8.25988C24.1026 9.00462 23.1547 9.34314 22.2746 9.34314C21.0559 9.34314 20.3789 9.14003 19.3633 8.7338L18.9571 8.53069L18.5509 11.0357C19.2956 11.3743 20.582 11.6451 22.0038 11.6451C25.2536 11.6451 27.3524 10.1556 27.4201 7.78595C27.4201 6.49957 26.6076 5.48401 24.8473 4.67157C23.7641 4.12994 23.087 3.79142 23.087 3.24979C23.087 2.77586 23.6287 2.23423 24.8473 2.23423C25.8629 2.23423 26.6076 2.43734 27.1493 2.64045L27.4201 2.77586L27.7586 0.473927Z" fill="#B5B5B5"/>
<path fill-rule="evenodd" clip-rule="evenodd" d="M35.68 0.203125H33.3103C32.5656 0.203125 32.0239 0.406236 31.6854 1.15098L27.0816 11.5774H30.3313C30.3313 11.5774 30.873 10.1556 31.0084 9.88478C31.3469 9.88478 34.529 9.88478 35.0029 9.88478C35.0706 10.291 35.4091 11.5774 35.4091 11.5774H38.2527L35.68 0.203125ZM31.8208 7.51514C32.0916 6.90581 33.0395 4.33306 33.0395 4.33306C33.0395 4.33306 33.3103 3.65602 33.4457 3.2498L33.6488 4.19765C33.6488 4.19765 34.2582 6.90581 34.3936 7.44744H31.8208V7.51514Z" fill="#B5B5B5"/>
<path fill-rule="evenodd" clip-rule="evenodd" d="M10.8326 0.203125L7.78596 7.92137L7.44745 6.36418C6.90581 4.53617 5.14551 2.57276 3.1821 1.62491L5.95796 11.5774H9.20775L14.0824 0.270829H10.8326V0.203125Z" fill="#B5B5B5"/>
<path fill-rule="evenodd" clip-rule="evenodd" d="M5.0101 0.203125H1.52588e-05V0.47394C3.85914 1.42179 6.43188 3.65602 7.51515 6.43188L6.43189 1.21868C6.16107 0.473941 5.61944 0.203125 5.0101 0.203125Z" fill="#2B3528"/>
</svg>
