<svg width="280" height="46" viewBox="0 0 280 46" fill="none" xmlns="http://www.w3.org/2000/svg">
<path d="M3.11759 19.7523V4.82595L8.64343 12.2331H10.4572L15.9836 4.82595V19.7523H19.1007V0.112693H15.9836L9.60693 8.95011L3.17396 0.112693H0V19.7523H3.11759ZM29.3935 19.7523L31.5188 14.8706H40.9275L43.0816 19.7523H46.4251L37.7535 0H34.7497L26.0775 19.7523H29.3935ZM36.2231 3.89991L39.8507 12.1488H32.5956L36.2231 3.89991ZM56.5196 19.7523V10.3252L65.8719 19.7523H70.1226L59.467 9.0907L68.6486 0.112693H64.6531L56.5196 8.13677V0.112693H53.402V19.7523H56.5196ZM91.0991 19.7523V16.9184H79.7347V10.6901H88.6904V7.85619H79.7347V2.94601H90.7306V0.112693H76.6177V19.7523H91.0991ZM99.0107 7.9683L102.469 0.112693H98.9544L96.6019 7.9683H99.0107ZM112.251 19.7523V5.47137L123.53 19.7523H126.166V0.112693H123.105V14.3372L111.911 0.112693H109.19V19.7523H112.251ZM135.324 7.9683L138.782 0.112693H135.268L132.915 7.9683H135.324ZM148.564 19.7523V5.47137L159.844 19.7523H162.479V0.112693H159.418V14.3372L148.224 0.112693H145.504V19.7523H148.564ZM172.771 19.7523L174.897 14.8706H184.306L186.459 19.7523H189.803L181.131 0H178.127L169.456 19.7523H172.771ZM179.601 3.89991L183.228 12.1488H175.974L179.601 3.89991ZM192.416 2.94601H198.962V19.7523H202.08V2.94601H208.654V0.112693H192.416V2.94601ZM215.688 11.4476C215.688 14.2251 216.452 16.3572 217.983 17.8723C219.542 19.3596 221.525 20.1171 223.991 20.1171C226.457 20.1171 228.441 19.3596 229.999 17.8444C231.558 16.3293 232.323 14.1972 232.323 11.4476V0.112693H229.206V11.5597C229.206 15.2354 227.137 17.2275 223.991 17.2275C220.845 17.2275 218.805 15.2354 218.805 11.5597V0.112693H215.688V11.4476ZM243.976 19.7523V11.4476H248.623L254.603 19.7523H258.372L252.137 11.1107C254.858 10.4652 256.445 8.38893 256.445 5.69564C256.445 4.04051 255.85 2.69329 254.688 1.65513C253.526 0.616979 251.91 0.112693 249.898 0.112693H240.858V19.7523H243.976ZM243.976 2.94601H249.7C251.967 2.94601 253.299 4.01204 253.299 5.80775C253.299 7.6877 251.967 8.72586 249.7 8.72586H243.976V2.94601ZM280 19.7523V16.9184H268.636V10.6901H277.591V7.85619H268.636V2.94601H279.632V0.112693H265.519V19.7523H280Z" fill="white"/>
<path d="M110.238 46C110.945 46 111.533 45.8275 112.001 45.4906C112.47 45.1542 112.709 44.6904 112.709 44.0996C112.672 43.3813 112.369 42.9265 111.799 42.626C111.395 42.408 111.111 42.2987 110.624 42.1536L109.889 41.9441C109.733 41.8804 109.439 41.7893 109.319 41.717C109.099 41.5622 108.943 41.4171 108.943 41.1439C108.943 40.6709 109.374 40.3345 110.256 40.3345C110.963 40.3345 111.643 40.5349 112.295 40.9259V39.9253C111.698 39.5707 111.009 39.3977 110.238 39.3977C108.796 39.3977 107.905 40.0801 107.905 41.1348C107.905 41.7171 108.098 42.1263 108.566 42.4171C108.805 42.5537 109.016 42.6624 109.209 42.7353C109.402 42.8081 109.687 42.8992 110.045 42.9994L110.174 43.0352C110.587 43.1536 110.761 43.1992 111.055 43.3358C111.202 43.3995 111.312 43.4627 111.386 43.5264C111.542 43.663 111.671 43.8628 111.671 44.1178C111.671 44.7086 111.028 45.0632 110.183 45.0632C109.742 45.0632 109.301 44.9818 108.86 44.8179C108.428 44.6539 108.079 44.4633 107.822 44.2362V45.3182C108.456 45.7729 109.255 46 110.238 46ZM116.265 45.8816V43.2538H118.02C118.69 43.2538 119.214 43.0808 119.59 42.7262C119.976 42.3716 120.169 41.9168 120.169 41.3625C120.169 40.8166 119.976 40.371 119.59 40.0346C119.214 39.6891 118.69 39.5161 118.02 39.5161H115.255V45.8816H116.265ZM116.265 40.4347H117.937C118.699 40.4347 119.149 40.7711 119.149 41.3801C119.149 41.9897 118.699 42.3352 117.937 42.3352H116.265V40.4347ZM122.43 45.8816L123.119 44.2994H126.169L126.867 45.8816H127.951L125.14 39.4797H124.166L121.356 45.8816H122.43ZM124.644 40.7438L125.82 43.4177H123.468L124.644 40.7438ZM136.449 39.8707C135.971 39.5525 135.42 39.3977 134.805 39.3977C134.272 39.3977 133.831 39.5525 133.491 39.8525C133.151 40.1524 132.976 40.5349 132.976 40.9988C132.976 41.408 133.096 41.7893 133.344 42.1354C133.059 42.2623 132.793 42.49 132.545 42.8081C132.306 43.1263 132.187 43.4991 132.187 43.9265C132.187 44.5725 132.417 45.0814 132.885 45.4547C133.353 45.8184 133.923 46 134.593 46C135.338 46 135.999 45.7729 136.559 45.3272L137.147 45.8816H138.433L137.184 44.6813C137.643 44.054 137.873 43.3084 137.873 42.4444H136.917C136.899 43.0716 136.752 43.5993 136.486 44.0085L134.814 42.3898C134.639 42.2259 134.511 42.0899 134.41 41.9897C134.318 41.8895 134.217 41.7444 134.116 41.5713C134.015 41.3983 133.969 41.235 133.969 41.0802C133.969 40.5708 134.354 40.2617 134.979 40.2617C135.503 40.2617 135.999 40.462 136.449 40.853V39.8707ZM134.621 45.136C133.812 45.136 133.17 44.6813 133.17 43.9083C133.17 43.3722 133.537 42.9447 133.932 42.799L135.888 44.6904C135.539 44.9909 135.117 45.136 134.621 45.136ZM145.048 46C145.755 46 146.343 45.8275 146.812 45.4906C147.28 45.1542 147.519 44.6904 147.519 44.0996C147.482 43.3813 147.179 42.9265 146.609 42.626C146.205 42.408 145.921 42.2987 145.434 42.1536L144.699 41.9441C144.543 41.8804 144.249 41.7893 144.129 41.717C143.909 41.5622 143.753 41.4171 143.753 41.1439C143.753 40.6709 144.185 40.3345 145.066 40.3345C145.774 40.3345 146.454 40.5349 147.106 40.9259V39.9253C146.509 39.5707 145.82 39.3977 145.048 39.3977C143.606 39.3977 142.715 40.0801 142.715 41.1348C142.715 41.7171 142.908 42.1263 143.376 42.4171C143.615 42.5537 143.826 42.6624 144.02 42.7353C144.212 42.8081 144.497 42.8992 144.855 42.9994L144.984 43.0352C145.397 43.1536 145.572 43.1992 145.866 43.3358C146.013 43.3995 146.122 43.4627 146.196 43.5264C146.352 43.663 146.481 43.8628 146.481 44.1178C146.481 44.7086 145.838 45.0632 144.993 45.0632C144.552 45.0632 144.111 44.9818 143.67 44.8179C143.238 44.6539 142.889 44.4633 142.632 44.2362V45.3182C143.266 45.7729 144.065 46 145.048 46ZM151.076 45.8816V42.9447H154.428V45.8816H155.439V39.5161H154.428V42.0261H151.076V39.5161H150.065V45.8816H151.076ZM159.748 44.3904C159.316 43.9356 159.105 43.3722 159.105 42.6989C159.105 42.0261 159.316 41.462 159.748 41.017C160.18 40.5616 160.713 40.3345 161.347 40.3345C161.98 40.3345 162.513 40.5616 162.945 41.017C163.377 41.462 163.597 42.0261 163.597 42.6989C163.597 43.3722 163.377 43.9356 162.945 44.3904C162.513 44.8361 161.98 45.0632 161.347 45.0632C160.713 45.0632 160.18 44.8361 159.748 44.3904ZM163.698 45.0541C164.322 44.4177 164.634 43.6357 164.634 42.6989C164.634 41.7626 164.322 40.98 163.698 40.3528C163.073 39.7164 162.292 39.3977 161.347 39.3977C160.4 39.3977 159.62 39.7164 158.995 40.3528C158.38 40.98 158.068 41.7626 158.068 42.6989C158.068 43.6357 158.38 44.4177 158.995 45.0541C159.62 45.6818 160.4 46 161.347 46C162.292 46 163.073 45.6818 163.698 45.0541ZM168.274 45.8816V43.2538H170.028C170.699 43.2538 171.222 43.0808 171.599 42.7262C171.985 42.3716 172.178 41.9168 172.178 41.3625C172.178 40.8166 171.985 40.371 171.599 40.0346C171.222 39.6891 170.699 39.5161 170.028 39.5161H167.263V45.8816H168.274ZM168.274 40.4347H169.946C170.708 40.4347 171.158 40.7711 171.158 41.3801C171.158 41.9897 170.708 42.3352 169.946 42.3352H168.274V40.4347Z" fill="white"/>
</svg>
