<svg width="267" height="24" viewBox="0 0 267 24" fill="none" xmlns="http://www.w3.org/2000/svg">
<path d="M5.35938 10.7422H8.32812V12.4766H5.35938V15.8594H3.51562V12.4766H0.53125V10.7422H3.51562V7.57812H5.35938V10.7422ZM28.3634 19.7969H26.4884V17H18.9963V19.7969H17.09L17.0275 15.4219H17.9416C18.3947 14.9844 18.7567 14.349 19.0275 13.5156C19.2983 12.6771 19.4728 11.7292 19.5509 10.6719L19.8478 5.625H27.0197V15.4219H28.465L28.3634 19.7969ZM20.1759 15.4219H25.0509V7.21875H21.7306L21.5431 10.4219C21.4025 12.5625 20.9468 14.2292 20.1759 15.4219ZM31.3303 12.6953C31.3303 11.8672 31.4944 11.1224 31.8225 10.4609C32.1506 9.79427 32.6116 9.28385 33.2053 8.92969C33.7991 8.57031 34.4814 8.39062 35.2522 8.39062C36.3928 8.39062 37.3173 8.75781 38.0256 9.49219C38.7392 10.2266 39.1246 11.2005 39.1819 12.4141L39.1897 12.8594C39.1897 13.6927 39.0282 14.4375 38.7053 15.0938C38.3876 15.75 37.9293 16.2578 37.3303 16.6172C36.7366 16.9766 36.0491 17.1562 35.2678 17.1562C34.0751 17.1562 33.1194 16.7604 32.4006 15.9688C31.6871 15.1719 31.3303 14.112 31.3303 12.7891V12.6953ZM33.2288 12.8594C33.2288 13.7292 33.4084 14.4115 33.7678 14.9062C34.1272 15.3958 34.6272 15.6406 35.2678 15.6406C35.9084 15.6406 36.4058 15.3906 36.76 14.8906C37.1194 14.3906 37.2991 13.6589 37.2991 12.6953C37.2991 11.8411 37.1142 11.1641 36.7444 10.6641C36.3798 10.1641 35.8824 9.91406 35.2522 9.91406C34.6324 9.91406 34.1402 10.1615 33.7756 10.6562C33.411 11.1458 33.2288 11.8802 33.2288 12.8594ZM46.6956 9.01562C47.7581 9.01562 48.6097 9.3724 49.2503 10.0859C49.8909 10.7943 50.2113 11.7578 50.2113 12.9766V13.0703C50.2113 14.2891 49.8623 15.276 49.1644 16.0312C48.4717 16.7865 47.529 17.1641 46.3363 17.1641C45.1748 17.1641 44.2373 16.7786 43.5238 16.0078C42.8102 15.237 42.4534 14.1849 42.4534 12.8516V12.3047C42.4534 10.4818 42.7764 9.03906 43.4222 7.97656C44.068 6.91406 45.0316 6.25 46.3128 5.98438C47.0316 5.83854 47.4951 5.6849 47.7034 5.52344C47.917 5.35677 48.0238 5.13281 48.0238 4.85156H49.555C49.555 5.3776 49.4691 5.80469 49.2972 6.13281C49.1253 6.46094 48.8623 6.72917 48.5081 6.9375C48.154 7.14062 47.5446 7.33333 46.68 7.51562C45.8883 7.68229 45.2842 7.97917 44.8675 8.40625C44.456 8.83333 44.18 9.42448 44.0394 10.1797C44.7946 9.40365 45.68 9.01562 46.6956 9.01562ZM46.3206 10.5391C45.706 10.5391 45.2243 10.7474 44.8753 11.1641C44.5264 11.5755 44.3519 12.2109 44.3519 13.0703C44.3519 13.8828 44.5238 14.5156 44.8675 14.9688C45.2113 15.4219 45.7008 15.6484 46.3363 15.6484C46.9665 15.6484 47.4534 15.4219 47.7972 14.9688C48.1461 14.5104 48.3206 13.8229 48.3206 12.9062C48.3206 12.1771 48.1461 11.6016 47.7972 11.1797C47.4534 10.7526 46.9613 10.5391 46.3206 10.5391ZM58.6703 17C58.587 16.8385 58.5141 16.5755 58.4516 16.2109C57.8474 16.8411 57.1078 17.1562 56.2328 17.1562C55.3839 17.1562 54.6911 16.9141 54.1547 16.4297C53.6182 15.9453 53.35 15.3464 53.35 14.6328C53.35 13.7318 53.6833 13.0417 54.35 12.5625C55.0219 12.0781 55.9802 11.8359 57.225 11.8359H58.3891V11.2812C58.3891 10.8438 58.2667 10.4948 58.0219 10.2344C57.7771 9.96875 57.4047 9.83594 56.9047 9.83594C56.4724 9.83594 56.1182 9.94531 55.8422 10.1641C55.5661 10.3776 55.4281 10.651 55.4281 10.9844H53.5297C53.5297 10.5208 53.6833 10.0885 53.9906 9.6875C54.2979 9.28125 54.7146 8.96354 55.2406 8.73438C55.7719 8.50521 56.363 8.39062 57.0141 8.39062C58.0036 8.39062 58.7927 8.64062 59.3812 9.14062C59.9698 9.63542 60.2719 10.3333 60.2875 11.2344V15.0469C60.2875 15.8073 60.3943 16.4141 60.6078 16.8672V17H58.6703ZM56.5844 15.6328C56.9594 15.6328 57.3109 15.5417 57.6391 15.3594C57.9724 15.1771 58.2224 14.9323 58.3891 14.625V13.0312H57.3656C56.6625 13.0312 56.1339 13.1536 55.7797 13.3984C55.4255 13.6432 55.2484 13.9896 55.2484 14.4375C55.2484 14.8021 55.3682 15.0938 55.6078 15.3125C55.8526 15.526 56.1781 15.6328 56.5844 15.6328ZM64.3403 17V8.54688H67.77C68.9263 8.54688 69.8065 8.75 70.4106 9.15625C71.0148 9.55729 71.3169 10.1354 71.3169 10.8906C71.3169 11.2812 71.1945 11.6328 70.9497 11.9453C70.7101 12.2526 70.3533 12.4896 69.8794 12.6562C70.4315 12.7708 70.869 13.0026 71.1919 13.3516C71.5148 13.7005 71.6763 14.112 71.6763 14.5859C71.6763 15.3724 71.3846 15.9714 70.8013 16.3828C70.2231 16.7943 69.3898 17 68.3013 17H64.3403ZM66.2388 13.3984V15.5H68.3169C69.2908 15.5 69.7778 15.151 69.7778 14.4531C69.7778 13.75 69.283 13.3984 68.2934 13.3984H66.2388ZM66.2388 12.0391H67.8013C68.8794 12.0391 69.4184 11.7214 69.4184 11.0859C69.4184 10.4193 68.908 10.0755 67.8872 10.0547H66.2388V12.0391ZM80.5181 8.54688H82.4088V17H80.5181V11.3594L77.2056 17H75.315V8.54688H77.2056V14.1875L80.5181 8.54688ZM93.0006 10.0547H90.2584V17H88.36V10.0547H85.6491V8.54688H93.0006V10.0547ZM98.2331 11.2344H100.092C100.785 11.2344 101.389 11.3542 101.905 11.5938C102.421 11.8333 102.811 12.1693 103.077 12.6016C103.348 13.0339 103.483 13.5365 103.483 14.1094C103.483 14.9792 103.176 15.6771 102.561 16.2031C101.947 16.7292 101.129 16.9948 100.108 17H96.3347V8.54688H98.2331V11.2344ZM98.2331 12.7578V15.4844H100.085C100.548 15.4844 100.913 15.3698 101.178 15.1406C101.449 14.9062 101.585 14.5755 101.585 14.1484C101.585 13.7214 101.452 13.3854 101.186 13.1406C100.926 12.8906 100.572 12.763 100.124 12.7578H98.2331ZM112.972 17V8.54688H116.401C117.558 8.54688 118.438 8.75 119.042 9.15625C119.646 9.55729 119.948 10.1354 119.948 10.8906C119.948 11.2812 119.826 11.6328 119.581 11.9453C119.341 12.2526 118.985 12.4896 118.511 12.6562C119.063 12.7708 119.5 13.0026 119.823 13.3516C120.146 13.7005 120.308 14.112 120.308 14.5859C120.308 15.3724 120.016 15.9714 119.433 16.3828C118.854 16.7943 118.021 17 116.933 17H112.972ZM114.87 13.3984V15.5H116.948C117.922 15.5 118.409 15.151 118.409 14.4531C118.409 13.75 117.914 13.3984 116.925 13.3984H114.87ZM114.87 12.0391H116.433C117.511 12.0391 118.05 11.7214 118.05 11.0859C118.05 10.4193 117.539 10.0755 116.518 10.0547H114.87V12.0391ZM132.78 13.6562H131.819V17H129.921V8.54688H131.819V11.9219H132.655L134.991 8.54688H137.335L134.28 12.5938L137.593 17H135.124L132.78 13.6562ZM139.747 12.6953C139.747 11.8672 139.911 11.1224 140.239 10.4609C140.568 9.79427 141.028 9.28385 141.622 8.92969C142.216 8.57031 142.898 8.39062 143.669 8.39062C144.81 8.39062 145.734 8.75781 146.443 9.49219C147.156 10.2266 147.541 11.2005 147.599 12.4141L147.607 12.8594C147.607 13.6927 147.445 14.4375 147.122 15.0938C146.804 15.75 146.346 16.2578 145.747 16.6172C145.153 16.9766 144.466 17.1562 143.685 17.1562C142.492 17.1562 141.536 16.7604 140.818 15.9688C140.104 15.1719 139.747 14.112 139.747 12.7891V12.6953ZM141.646 12.8594C141.646 13.7292 141.825 14.4115 142.185 14.9062C142.544 15.3958 143.044 15.6406 143.685 15.6406C144.325 15.6406 144.823 15.3906 145.177 14.8906C145.536 14.3906 145.716 13.6589 145.716 12.6953C145.716 11.8411 145.531 11.1641 145.161 10.6641C144.797 10.1641 144.299 9.91406 143.669 9.91406C143.049 9.91406 142.557 10.1615 142.193 10.6562C141.828 11.1458 141.646 11.8802 141.646 12.8594ZM158.534 12.8594C158.534 14.1667 158.238 15.2109 157.644 15.9922C157.05 16.7682 156.253 17.1562 155.253 17.1562C154.326 17.1562 153.584 16.8516 153.027 16.2422V20.25H151.128V8.54688H152.878L152.956 9.40625C153.514 8.72917 154.271 8.39062 155.23 8.39062C156.261 8.39062 157.068 8.77604 157.652 9.54688C158.24 10.3125 158.534 11.3776 158.534 12.7422V12.8594ZM156.644 12.6953C156.644 11.8516 156.474 11.1823 156.136 10.6875C155.803 10.1927 155.323 9.94531 154.698 9.94531C153.922 9.94531 153.365 10.2656 153.027 10.9062V14.6562C153.37 15.3125 153.933 15.6406 154.714 15.6406C155.318 15.6406 155.79 15.3984 156.128 14.9141C156.472 14.4245 156.644 13.6849 156.644 12.6953ZM168.47 10.8594C168.47 11.2344 168.355 11.5807 168.126 11.8984C167.902 12.2109 167.585 12.4609 167.173 12.6484C168.142 12.987 168.626 13.6406 168.626 14.6094C168.626 15.3854 168.311 16.0052 167.681 16.4688C167.051 16.9271 166.207 17.1562 165.15 17.1562C164.504 17.1562 163.915 17.0495 163.384 16.8359C162.853 16.6172 162.439 16.3099 162.142 15.9141C161.845 15.513 161.697 15.0391 161.697 14.4922H163.587C163.587 14.8359 163.741 15.125 164.048 15.3594C164.355 15.5885 164.743 15.7031 165.212 15.7031C165.676 15.7031 166.043 15.5964 166.314 15.3828C166.59 15.1641 166.728 14.8802 166.728 14.5312C166.728 14.1198 166.608 13.8229 166.368 13.6406C166.129 13.4583 165.759 13.3672 165.259 13.3672H163.9V12H165.306C166.155 11.9896 166.579 11.6406 166.579 10.9531C166.579 10.6094 166.457 10.3411 166.212 10.1484C165.967 9.95573 165.631 9.85938 165.204 9.85938C164.788 9.85938 164.436 9.96354 164.15 10.1719C163.863 10.375 163.72 10.6328 163.72 10.9453H161.829C161.829 10.2005 162.142 9.59115 162.767 9.11719C163.392 8.63802 164.186 8.39844 165.15 8.39844C166.197 8.39844 167.012 8.61198 167.595 9.03906C168.178 9.46615 168.47 10.0729 168.47 10.8594ZM177.437 8.54688H179.327V17H177.437V11.3594L174.124 17H172.234V8.54688H174.124V14.1875L177.437 8.54688ZM190.427 17H188.529V13.5859H185.24V17H183.341V8.54688H185.24V12.0703H188.529V8.54688H190.427V17ZM197.332 14.2812L199.05 8.54688H201.074L197.714 18.2812C197.199 19.7031 196.324 20.4141 195.089 20.4141C194.813 20.4141 194.509 20.3672 194.175 20.2734V18.8047L194.535 18.8281C195.014 18.8281 195.373 18.7396 195.613 18.5625C195.858 18.3906 196.05 18.099 196.191 17.6875L196.464 16.9609L193.496 8.54688H195.542L197.332 14.2812Z" fill="url(#paint0_linear)"/>
<path d="M213 12H265M265 12L259.057 8M265 12L259.057 16" stroke="url(#paint1_linear)" stroke-width="1.5"/>
<defs>
<linearGradient id="paint0_linear" x1="45.1068" y1="-49.5" x2="130.665" y2="98.6029" gradientUnits="userSpaceOnUse">
<stop stop-color="#FFBC78"/>
<stop offset="0.416739" stop-color="#FFEEDD"/>
<stop offset="1" stop-color="#BC9165"/>
</linearGradient>
<linearGradient id="paint1_linear" x1="224.612" y1="-8.5" x2="256.193" y2="33.719" gradientUnits="userSpaceOnUse">
<stop stop-color="#FFBC78"/>
<stop offset="0.416739" stop-color="#FFEEDD"/>
<stop offset="1" stop-color="#BC9165"/>
</linearGradient>
</defs>
</svg>
